module github.com/cyberark/summon-conjur

go 1.15

require (
	github.com/cyberark/conjur-api-go v0.7.1
	github.com/karrick/golf v1.1.0
	github.com/sirupsen/logrus v1.3.0
	github.com/smartystreets/goconvey v1.6.4
	golang.org/x/crypto v0.0.0-20201216223049-8b5274cf687f // indirect
)
